Assn-7/isim.log
ISim log file
Running: /home/vanshita/COA-Laboratory-CS39001/Assn-7/KGPRISC_tb_isim_beh.exe -intstyle ise -gui -tclbatch isim.cmd -wdb /home/vanshita/COA-Laboratory-CS39001/Assn-7/KGPRISC_tb_isim_beh.wdb 
ISim P.20131013 (signature 0xfbc00daa)
WARNING: A WEBPACK license was found.
WARNING: Please use Xilinx License Configuration Manager to check out a full ISim license.
WARNING: ISim will run in Lite mode. Please refer to the ISim documentation for more information on the differences between the Lite and the Full version.
This is a Lite version of ISim.
Time resolution is 1 ps
# onerror resume
# wave add /
# run 1000 ns
Simulator is doing circuit initialization process.
 Block Memory Generator CORE Generator module loading initial data...
 Block Memory Generator data initialization complete.
Block Memory Generator CORE Generator module KGPRISC_tb.uut.DP.instructionMemory.inst.\native_mem_module.blk_mem_gen_v7_3_inst  is using a behavioral model for simulation which will not precisely model memory collision behavior.
Block Memory Generator CORE Generator module KGPRISC_tb.uut.DP.dataMemory.inst.\native_mem_module.blk_mem_gen_v7_3_inst  is using a behavioral model for simulation which will not precisely model memory collision behavior.
                   0, writeReg = 31, wrteData =          x, regWrite = x
                   0, A = xxxxxxxxxxxxxxxxxxxxxxxxxxxxxxxx, a = xxxxxxxxxxxxxxxxxxxxxxxxxxxxxxxx, b = xxxxxxxxxxxxxxxxxxxxxxxxxxxxxxxx, notb = xxxxxxxxxxxxxxxxxxxxxxxxxxxxxxxx, result = xxxxxxxxxxxxxxxxxxxxxxxxxxxxxxxx
Finished circuit initialization process.
                   0, A = 00000000000000000000000000000000, a = xxxxxxxxxxxxxxxxxxxxxxxxxxxxxxxx, b = xxxxxxxxxxxxxxxxxxxxxxxxxxxxxxxx, notb = xxxxxxxxxxxxxxxxxxxxxxxxxxxxxxxx, result = xxxxxxxxxxxxxxxxxxxxxxxxxxxxxxxx
                   0, A = 00000000000000000000000000000000, a = 00000000000000000000000000000000, b = xxxxxxxxxxxxxxxxxxxxxxxxxxxxxxxx, notb = xxxxxxxxxxxxxxxxxxxxxxxxxxxxxxxx, result = xxxxxxxxxxxxxxxxxxxxxxxxxxxxxxxx
                   0, A = 00000000000000000000000000000000, a = 00000000000000000000000000000000, b = 00000000000000000000000000000000, notb = 11111111111111111111111111111111, result = xxxxxxxxxxxxxxxxxxxxxxxxxxxxxxxx
                   0, A = 00000000000000000000000000000000, a = 00000000000000000000000000000000, b = 00000000000000000000000000000000, notb = 11111111111111111111111111111111, result = xxxxxxxxxxxxxxxxxxxxxxxxxxxx0000
                   0, A = 00000000000000000000000000000000, a = 00000000000000000000000000000000, b = 00000000000000000000000000000000, notb = 11111111111111111111111111111111, result = 000x000x000x000x000x000x000x0000
                   0, A = 00000000000000000000000000000000, a = 00000000000000000000000000000000, b = 00000000000000000000000000000000, notb = 11111111111111111111111111111111, result = 000x000x000x0000000x000x000x0000
                   0, A = 00000000000000000000000000000000, a = 00000000000000000000000000000000, b = 00000000000000000000000000000000, notb = 11111111111111111111111111111111, result = 00000000000000000000000000000000
                  10, writeReg =  0, wrteData =          0, regWrite = 1
                  10, A = 00000000000000000000000000000000, a = 00000000000000000000000000000000, b = 00000000000000000000000000000101, notb = 11111111111111111111111111111010, result = 00000000000000000000000000000000
                  10, A = 00000000000000000000000000000000, a = 00000000000000000000000000000000, b = 00000000000000000000000000000101, notb = 11111111111111111111111111111010, result = 00000000000000000000000000000000
                  10, A = 00000000000000000000000000000000, a = 00000000000000000000000000000000, b = 00000000000000000000000000000101, notb = 11111111111111111111111111111010, result = 00000000000000000000000000000101
                  30, writeReg =  8, wrteData =          5, regWrite = 1
                  30, A = 00000000000000000000000000000101, a = 00000000000000000000000000000000, b = 00000000000000000000000000000101, notb = 11111111111111111111111111111010, result = 00000000000000000000000000000101
                  30, A = 00000000000000000000000000000101, a = 00000000000000000000000000000101, b = 00000000000000000000000000000101, notb = 11111111111111111111111111111010, result = 00000000000000000000000000000101
                  30, A = 00000000000000000000000000000101, a = 00000000000000000000000000000101, b = 00000000000000000000000000000101, notb = 11111111111111111111111111111010, result = 00000000000000000000000000001010
                  30, A = 00000000000000000000000000000000, a = 00000000000000000000000000000101, b = 00000000000000000000000000000101, notb = 11111111111111111111111111111010, result = 00000000000000000000000000000101
                  30, A = 00000000000000000000000000000000, a = 00000000000000000000000000000000, b = 00000000000000000000000000000000, notb = 11111111111111111111111111111111, result = 00000000000000000000000000000000
                  30, A = 00000000000000000000000000000000, a = 00000000000000000000000000000000, b = 00000000000000000000000000000000, notb = 11111111111111111111111111111111, result = 00000000000000000000000000000000
                  50, writeReg = 31, wrteData =          8, regWrite = 1
                  50, A = 00000000000000000000000000000101, a = 00000000000000000000000000000000, b = 00000000000000000000000000000000, notb = 11111111111111111111111111111111, result = 00000000000000000000000000000000
                  50, A = 00000000000000000000000000000101, a = 00000000000000000000000000000101, b = 00000000000000000000000000000011, notb = 11111111111111111111111111111100, result = 00000000000000000000000000000000
                  50, A = 00000000000000000000000000000101, a = 00000000000000000000000000000101, b = 00000000000000000000000000000011, notb = 11111111111111111111111111111100, result = 00000000000000000000000000101000
                  50, A = 00000000000000000000000000000101, a = 00000000000000000000000000000101, b = 00000000000000000000000000000011, notb = 11111111111111111111111111111100, result = 00000000000000000000000000101000
                  70, writeReg =  8, wrteData =         40, regWrite = 1
                  70, A = 00000000000000000000000000101000, a = 00000000000000000000000000000101, b = 00000000000000000000000000000011, notb = 11111111111111111111111111111100, result = 00000000000000000000000000101000
                  70, A = 00000000000000000000000000101000, a = 00000000000000000000000000101000, b = 00000000000000000000000000000011, notb = 11111111111111111111111111111100, result = 00000000000000000000000000101000
                  70, A = 00000000000000000000000000101000, a = 00000000000000000000000000101000, b = 00000000000000000000000000000011, notb = 11111111111111111111111111111100, result = 00000000000000000000000101000000
                  70, A = 00000000000000000000000000001000, a = 00000000000000000000000000101000, b = 00000000000000000000000000000011, notb = 11111111111111111111111111111100, result = 00000000000000000000000000101000
                  70, A = 00000000000000000000000000001000, a = 00000000000000000000000000001000, b = 00000000000000000000000000000000, notb = 11111111111111111111111111111111, result = 00000000000000000000000000001000
                  70, A = 00000000000000000000000000001000, a = 00000000000000000000000000001000, b = 00000000000000000000000000000000, notb = 11111111111111111111111111111111, result = 00000000000000000000000000001000
                  70, A = 00000000000000000000000000001000, a = 00000000000000000000000000001000, b = 00000000000000000000000000000000, notb = 11111111111111111111111111111111, result = 00000000000000000000000000001000
                  90, writeReg = 31, wrteData =         20, regWrite = 0
                  90, A = 00000000000000000000000000000000, a = 00000000000000000000000000001000, b = 00000000000000000000000000000000, notb = 11111111111111111111111111111111, result = 00000000000000000000000000001000
                  90, A = 00000000000000000000000000000000, a = 00000000000000000000000000000000, b = 00000000000000000000000000000110, notb = 11111111111111111111111111111001, result = 00000000000000000000000000001000
                  90, A = 00000000000000000000000000000000, a = 00000000000000000000000000000000, b = 00000000000000000000000000000110, notb = 11111111111111111111111111111001, result = 00000000000000000000000000000110
Stopped at time : 105 ns : File "/home/vanshita/COA-Laboratory-CS39001/Assn-7/KGPRISC_tb.v" Line 49
# exit 0
